[gd_scene load_steps=7 format=2]

[ext_resource path="res://Scripts/Coin.vs" type="Script" id=1]
[ext_resource path="res://Sprites/Coin/Coin-1.png" type="Texture" id=2]
[ext_resource path="res://Sprites/Coin/Coin-2.png" type="Texture" id=3]
[ext_resource path="res://Sprites/Coin/Coin-3.png" type="Texture" id=4]

[sub_resource type="RectangleShape2D" id=1]
extents = Vector2( 8, 8 )

[sub_resource type="SpriteFrames" id=2]
animations = [ {
"frames": [ ExtResource( 2 ), ExtResource( 3 ), ExtResource( 4 ), ExtResource( 3 ) ],
"loop": true,
"name": "default",
"speed": 6.0
} ]

[node name="Coin" type="Area2D"]
script = ExtResource( 1 )

[node name="CollisionShape2D" type="CollisionShape2D" parent="."]
shape = SubResource( 1 )

[node name="AnimatedSprite" type="AnimatedSprite" parent="."]
frames = SubResource( 2 )
playing = true
[connection signal="body_entered" from="." to="." method="_on_Coin_body_entered"]
